{
    "status": 200,
    "data":{
        "funds": {
            "available": {
                "currency": "SGD",
                "amount": "892.90"
            },
            "withholding": {
                "currency": "SGD",
                "amount": "0.00"
            }
        },
        "id": "e61b6b5da282a949c93010c8ddd4a9cb",
        "number": "w4TDl8Kzw7k5w5cVECTCr8OUJ1VQYsOz",
        "holder": {
            "name": "test cards"
        },
        "date": {
            "expiry": "2026-11",
            "issued": "2018-08-21",
            "closed": null
        },
        "image": {
            "small": "https://vcard-assets.s3.amazonaws.com/sg/products/mmvwallet/card-small.png",
            "medium": "https://vcard-assets.s3.amazonaws.com/sg/products/mmvwallet/card-medium.png",
            "large": "https://vcard-assets.s3.amazonaws.com/sg/products/mmvwallet/card-large.png"
        },
        "status": {
            "is_active": true,
            "text": "active"
        },
        "details": {
            "min_load_limit": 1,
            "max_load_limit": 1000,
            "network_type": "mastercard",
            "fee": 0,
            "topup_limits": {
                "pre_kyc": {
                    "allowed": 1,
                    "lifetime_count_limit": null,
                    "lifetime_transactional_limit": 999999999999,
                    "daily_count_limit": null,
                    "daily_transactional_limit": 1000,
                    "weekly_count_limit": null,
                    "weekly_transactional_limit": null,
                    "monthly_count_limit": null,
                    "monthly_transactional_limit": 3000,
                    "unit_transaction_limit": 1000
                },
                "post_kyc": {
                    "allowed": 1,
                    "lifetime_count_limit": null,
                    "lifetime_transactional_limit": 999999999999,
                    "daily_count_limit": null,
                    "daily_transactional_limit": 1000,
                    "weekly_count_limit": null,
                    "weekly_transactional_limit": null,
                    "monthly_count_limit": null,
                    "monthly_transactional_limit": 3000,
                    "unit_transaction_limit": 1000
                },
                "current": {
                    "lifetime_count": 18,
                    "lifetime_transactional": 1183.2,
                    "daily_count": 0,
                    "daily_transactional": 0,
                    "weekly_count": 3,
                    "weekly_transactional": 3,
                    "monthly_count": 3,
                    "monthly_transactional": 3
                }
            },
            "deduct_limits": {
                "pre_kyc": {
                    "allowed": 1,
                    "lifetime_count_limit": null,
                    "lifetime_transactional_limit": 999999999999,
                    "daily_count_limit": null,
                    "daily_transactional_limit": 1000,
                    "weekly_count_limit": null,
                    "weekly_transactional_limit": null,
                    "monthly_count_limit": null,
                    "monthly_transactional_limit": 3000,
                    "unit_transaction_limit": 1000
                },
                "post_kyc": {
                    "allowed": 1,
                    "lifetime_count_limit": null,
                    "lifetime_transactional_limit": 999999999999,
                    "daily_count_limit": null,
                    "daily_transactional_limit": 1000,
                    "weekly_count_limit": null,
                    "weekly_transactional_limit": null,
                    "monthly_count_limit": null,
                    "monthly_transactional_limit": 3000,
                    "unit_transaction_limit": 1000
                },
                "current": {
                    "lifetime_count": 56,
                    "lifetime_transactional": 246.3,
                    "daily_count": 0,
                    "daily_transactional": 0,
                    "weekly_count": 0,
                    "weekly_transactional": 0,
                    "monthly_count": 0,
                    "monthly_transactional": 0
                }
            },
            "transfer_in_limits": {
                "pre_kyc": {
                    "allowed": 1,
                    "lifetime_count_limit": null,
                    "lifetime_transactional_limit": 999999999999,
                    "daily_count_limit": null,
                    "daily_transactional_limit": 1000,
                    "weekly_count_limit": null,
                    "weekly_transactional_limit": null,
                    "monthly_count_limit": null,
                    "monthly_transactional_limit": 3000,
                    "unit_transaction_limit": 1000
                },
                "post_kyc": {
                    "allowed": 1,
                    "lifetime_count_limit": null,
                    "lifetime_transactional_limit": 999999999999,
                    "daily_count_limit": null,
                    "daily_transactional_limit": 1000,
                    "weekly_count_limit": null,
                    "weekly_transactional_limit": null,
                    "monthly_count_limit": null,
                    "monthly_transactional_limit": 3000,
                    "unit_transaction_limit": 1000
                },
                "current": {
                    "lifetime_count": 0,
                    "lifetime_transactional": 0,
                    "daily_count": 0,
                    "daily_transactional": 0,
                    "weekly_count": 0,
                    "weekly_transactional": 0,
                    "monthly_count": 0,
                    "monthly_transactional": 0
                }
            },
            "transfer_out_limits": {
                "pre_kyc": {
                    "allowed": 1,
                    "lifetime_count_limit": null,
                    "lifetime_transactional_limit": 999999999999,
                    "daily_count_limit": null,
                    "daily_transactional_limit": 1000,
                    "weekly_count_limit": null,
                    "weekly_transactional_limit": null,
                    "monthly_count_limit": null,
                    "monthly_transactional_limit": 3000,
                    "unit_transaction_limit": 1000
                },
                "post_kyc": {
                    "allowed": 1,
                    "lifetime_count_limit": null,
                    "lifetime_transactional_limit": 999999999999,
                    "daily_count_limit": null,
                    "daily_transactional_limit": 1000,
                    "weekly_count_limit": null,
                    "weekly_transactional_limit": null,
                    "monthly_count_limit": null,
                    "monthly_transactional_limit": 3000,
                    "unit_transaction_limit": 1000
                },
                "current": {
                    "lifetime_count": 0,
                    "lifetime_transactional": 0,
                    "daily_count": 0,
                    "daily_transactional": 0,
                    "weekly_count": 0,
                    "weekly_transactional": 0,
                    "monthly_count": 0,
                    "monthly_transactional": 0
                }
            },
            "load_limits": {
                "pre_kyc": {
                    "allowed": 1,
                    "lifetime_count_limit": null,
                    "lifetime_transactional_limit": 999999999999,
                    "daily_count_limit": null,
                    "daily_transactional_limit": null,
                    "weekly_count_limit": null,
                    "weekly_transactional_limit": null,
                    "monthly_count_limit": null,
                    "monthly_transactional_limit": null,
                    "unit_transaction_limit": 1000
                },
                "post_kyc": {
                    "allowed": 1,
                    "lifetime_count_limit": null,
                    "lifetime_transactional_limit": 999999999999,
                    "daily_count_limit": null,
                    "daily_transactional_limit": null,
                    "weekly_count_limit": null,
                    "weekly_transactional_limit": null,
                    "monthly_count_limit": null,
                    "monthly_transactional_limit": null,
                    "unit_transaction_limit": 1000
                },
                "current": {
                    "lifetime_count": 4,
                    "lifetime_transactional": 46,
                    "daily_count": 0,
                    "daily_transactional": 0,
                    "weekly_count": 0,
                    "weekly_transactional": 0,
                    "monthly_count": 0,
                    "monthly_transactional": 0
                }
            },
            "unload_limits": {
                "pre_kyc": {
                    "allowed": 1,
                    "lifetime_count_limit": null,
                    "lifetime_transactional_limit": 999999999999,
                    "daily_count_limit": null,
                    "daily_transactional_limit": null,
                    "weekly_count_limit": null,
                    "weekly_transactional_limit": null,
                    "monthly_count_limit": null,
                    "monthly_transactional_limit": null,
                    "unit_transaction_limit": 1000
                },
                "post_kyc": {
                    "allowed": 1,
                    "lifetime_count_limit": null,
                    "lifetime_transactional_limit": 999999999999,
                    "daily_count_limit": null,
                    "daily_transactional_limit": null,
                    "weekly_count_limit": null,
                    "weekly_transactional_limit": null,
                    "monthly_count_limit": null,
                    "monthly_transactional_limit": null,
                    "unit_transaction_limit": 1000
                },
                "current": {
                    "lifetime_count": 4,
                    "lifetime_transactional": 46,
                    "daily_count": 0,
                    "daily_transactional": 0,
                    "weekly_count": 0,
                    "weekly_transactional": 0,
                    "monthly_count": 0,
                    "monthly_transactional": 0
                }
            },
            "remittance_limits": {
                "pre_kyc": {
                    "allowed": 0,
                    "lifetime_count_limit": null,
                    "lifetime_transactional_limit": 0,
                    "daily_count_limit": null,
                    "daily_transactional_limit": 0,
                    "weekly_count_limit": null,
                    "weekly_transactional_limit": 0,
                    "monthly_count_limit": null,
                    "monthly_transactional_limit": 0,
                    "unit_transaction_limit": 0
                },
                "post_kyc": {
                    "allowed": 0,
                    "lifetime_count_limit": null,
                    "lifetime_transactional_limit": 0,
                    "daily_count_limit": null,
                    "daily_transactional_limit": 0,
                    "weekly_count_limit": null,
                    "weekly_transactional_limit": 0,
                    "monthly_count_limit": null,
                    "monthly_transactional_limit": 0,
                    "unit_transaction_limit": 0
                },
                "current": {
                    "lifetime_count": 0,
                    "lifetime_transactional": 0,
                    "daily_count": 0,
                    "daily_transactional": 0,
                    "weekly_count": 0,
                    "weekly_transactional": 0,
                    "monthly_count": 0,
                    "monthly_transactional": 0
                }
            },
            "reversal_limits": {
                "current": {
                    "lifetime_count": 0,
                    "lifetime_transactional": 0,
                    "daily_count": 0,
                    "daily_transactional": 0,
                    "weekly_count": 0,
                    "weekly_transactional": 0,
                    "monthly_count": 0,
                    "monthly_transactional": 0
                }
            }
        },
        "kit": "000000779024",
        "cards": [
            {
                "id": "c96dc973a5bf46d51f9b2aa0d76e72e2",
                "status": {
                    "is_active": true,
                    "text": "active"
                },
                "type": [
                    {
                        "rel": "self",
                        "href": "https://sgmc-ih-alpha-uat.mmvpay.com/api/v1/users/wallets/cards/types/mcmmgcard",
                        "method": "GET"
                    }
                ],
                "links": [
                    {
                        "rel": "self",
                        "href": "https://sgmc-ih-alpha-uat.mmvpay.com/api/v1/users/wallets/cards/c96dc973a5bf46d51f9b2aa0d76e72e2",
                        "method": "GET"
                    }
                ]
            },
            {
                "id": "c9870ef4d361803bb6f873658922d484",
                "status": {
                    "is_active": true,
                    "text": "active"
                },
                "type": [
                    {
                        "rel": "self",
                        "href": "https://sgmc-ih-alpha-uat.mmvpay.com/api/v1/users/wallets/cards/types/mcmmgcard",
                        "method": "GET"
                    }
                ],
                "links": [
                    {
                        "rel": "self",
                        "href": "https://sgmc-ih-alpha-uat.mmvpay.com/api/v1/users/wallets/cards/c9870ef4d361803bb6f873658922d484",
                        "method": "GET"
                    }
                ]
            },
            {
                "id": "b01abf5c63dc0d9ecfbba34775a7638b",
                "status": {
                    "is_active": true,
                    "text": "active"
                },
                "type": [
                    {
                        "rel": "self",
                        "href": "https://sgmc-ih-alpha-uat.mmvpay.com/api/v1/users/wallets/cards/types/mcmmgcard",
                        "method": "GET"
                    }
                ],
                "links": [
                    {
                        "rel": "self",
                        "href": "https://sgmc-ih-alpha-uat.mmvpay.com/api/v1/users/wallets/cards/b01abf5c63dc0d9ecfbba34775a7638b",
                        "method": "GET"
                    }
                ]
            },
            {
                "id": "b2ea4fd7007de24df60286abfb3684c0",
                "status": {
                    "is_active": true,
                    "text": "active"
                },
                "type": [
                    {
                        "rel": "self",
                        "href": "https://sgmc-ih-alpha-uat.mmvpay.com/api/v1/users/wallets/cards/types/mcmmgcard",
                        "method": "GET"
                    }
                ],
                "links": [
                    {
                        "rel": "self",
                        "href": "https://sgmc-ih-alpha-uat.mmvpay.com/api/v1/users/wallets/cards/b2ea4fd7007de24df60286abfb3684c0",
                        "method": "GET"
                    }
                ]
            },
            {
                "id": "2d70a2a9dc69affac49b535a1383e145",
                "status": {
                    "is_active": true,
                    "text": "active"
                },
                "type": [
                    {
                        "rel": "self",
                        "href": "https://sgmc-ih-alpha-uat.mmvpay.com/api/v1/users/wallets/cards/types/mcimbacard",
                        "method": "GET"
                    }
                ],
                "links": [
                    {
                        "rel": "self",
                        "href": "https://sgmc-ih-alpha-uat.mmvpay.com/api/v1/users/wallets/cards/2d70a2a9dc69affac49b535a1383e145",
                        "method": "GET"
                    }
                ]
            }
        ]
    }
}