<?xml version="1.0" encoding="UTF-8"?>
<svg width="19px" height="12px" viewBox="0 0 19 12" version="1.1" xmlns="http://www.w3.org/2000/svg" xmlns:xlink="http://www.w3.org/1999/xlink">
    <!-- Generator: Sketch 47.1 (45422) - http://www.bohemiancoding.com/sketch -->
    <title>back-arrow</title>
    <desc>Created with Sketch.</desc>
    <defs></defs>
    <g id="MyCards" stroke="none" stroke-width="1" fill="none" fill-rule="evenodd">
        <g id="Cards" transform="translate(-16.000000, -37.000000)" fill-rule="nonzero" fill="#D0021B">
            <g id="Navigation-Bar/Back">
                <g id="Group-14" transform="translate(16.000000, 37.000000)">
                    <path d="M6.95172414,0.247848537 C7.11724138,0.413080895 7.2,0.619621343 7.2,0.82616179 C7.2,1.03270224 7.11724138,1.23924269 6.95172414,1.40447504 L3.1862069,5.16351119 L17.7931034,5.16351119 C18.2482759,5.16351119 18.6206897,5.53528399 18.6206897,5.98967298 C18.6206897,6.44406196 18.2482759,6.81583477 17.7931034,6.81583477 L3.1862069,6.81583477 L6.95172414,10.5748709 C7.28275862,10.9053356 7.28275862,11.4216867 6.95172414,11.7521515 C6.62068966,12.0826162 6.10344828,12.0826162 5.77241379,11.7521515 L0,5.98967298 L5.77241379,0.247848537 C6.10344828,-0.082616179 6.62068966,-0.082616179 6.95172414,0.247848537 Z" id="back-arrow"></path>
                </g>
            </g>
        </g>
    </g>
</svg>